Volcano Eruptions(2020_20) - TidyTuesday
…
## Install tidy data
devtools::install_github("thebioengineer/tidytuesdayR")
tuesdata <- tidytuesdayR::tt_load(2020, week = 20)

## Seperate files
volcano <- tuesdata$volcano
eruptions <- tuesdata$eruptions
events <- tuesdata$events
tree_rings <- tuesdata$tree_rings

volcano

## # A tibble: 958 x 26
##    volcano_number volcano_name primary_volcano last_eruption_y country region
##             <dbl> <chr>        <chr>            <chr>            <chr>   <chr> 
##  1         283001 Abu          Shield(s)        -6850            Japan   Japan
##  2         355096 Acamarachi   Stratovolcano    Unknown          Chile   South
##  3         342080 Acatenango   Stratovolcano(e 1972             Guatem Mxic
##  4         213004 Acigol-Nevs Caldera          -2080            Turkey  Medit
##  5         321040 Adams        Stratovolcano    950              United Canad
##  6         283170 Adatarayama  Stratovolcano(e 1996             Japan   Japan
##  7         221170 Adwa         Stratovolcano    Unknown          Ethiop Afric
##  8         221110 Afdera       Stratovolcano    Unknown          Ethiop Afric
##  9         284160 Agrigan      Stratovolcano    1917             United Japan
## 10         342100 Agua         Stratovolcano    Unknown          Guatem Mxic
## #  with 948 more rows, and 20 more variables: subregion <chr>, latitude <dbl>,
## #   longitude <dbl>, elevation <dbl>, tectonic_settings <chr>,
## #   evidence_category <chr>, major_rock_1 <chr>, major_rock_2 <chr>,
## #   major_rock_3 <chr>, major_rock_4 <chr>, major_rock_5 <chr>,
## #   minor_rock_1 <chr>, minor_rock_2 <chr>, minor_rock_3 <chr>,
## #   minor_rock_4 <chr>, minor_rock_5 <chr>, population_within_5_km <dbl>,
## #   population_within_10_km <dbl>, population_within_30_km <dbl>,
## #   population_within_100_km <dbl>
…
